…
---

    Code
      tibble::tibble(test = xlr_percent(0:99 / 100, dp = 2))
    Output
      # A tibble: 100 x 1
            test
         <x_pct>
       1   0.00%
       2   1.00%
       3   2.00%
       4   3.00%
       5   4.00%
       6   5.00%
       7   6.00%
       8   7.00%
       9   8.00%
      10   9.00%
      # i 90 more rows
