…
---

    Code
      tibble::tibble(test = xlr_integer(0:99))
    Output
      # A tibble: 100 x 1
            test
         <x_int>
       1       0
       2       1
       3       2
       4       3
       5       4
       6       5
       7       6
       8       7
       9       8
      10       9
      # i 90 more rows
…
