…
---

    Code
      tibble::tibble(test = xlr_n_percent(n = 0:99, pct = (0:99) / 100, dp = 2))
    Output
      # A tibble: 100 x 1
              test
         <x_n_pct>
       1 0 (0.00%)
       2 1 (1.00%)
       3 2 (2.00%)
       4 3 (3.00%)
       5 4 (4.00%)
       6 5 (5.00%)
       7 6 (6.00%)
       8 7 (7.00%)
       9 8 (8.00%)
      10 9 (9.00%)
      # i 90 more rows
…
