…
---

    Code
      tibble::tibble(test = xlr_numeric(0:99 / 100, dp = 2))
    Output
      # A tibble: 100 x 1
            test
         <x_num>
       1    0.00
       2    0.01
       3    0.02
       4    0.03
       5    0.04
       6    0.05
       7    0.06
       8    0.07
       9    0.08
      10    0.09
      # i 90 more rows
…
---

    Code
      tibble::tibble(test = xlr_numeric(0:99 / 100, dp = 4, scientific = TRUE))
    Output
      # A tibble: 100 x 1
               test
            <x_num>
       1 0.0000e+00
       2 1.0000e-02
       3 2.0000e-02
       4 3.0000e-02
       5 4.0000e-02
       6 5.0000e-02
       7 6.0000e-02
       8 7.0000e-02
       9 8.0000e-02
      10 9.0000e-02
      # i 90 more rows
…
